\BOOKMARK [0][-]{part.1}{\376\377\000I\000\040\000I\000n\000t\000r\000o\000d\000u\000c\000t\000i\000o\000n}{}% 1
\BOOKMARK [1][-]{section.1}{\376\377\000M\000o\000t\000i\000v\000a\000t\000i\000o\000n}{part.1}% 2
\BOOKMARK [1][-]{section.2}{\376\377\000R\000e\000q\000u\000i\000r\000e\000d\000\040\000P\000a\000c\000k\000a\000g\000e\000s}{part.1}% 3
\BOOKMARK [1][-]{section.3}{\376\377\000L\000i\000c\000e\000n\000s\000e}{part.1}% 4
\BOOKMARK [0][-]{part.2}{\376\377\000I\000I\000\040\000M\000o\000d\000i\000f\000i\000c\000a\000t\000i\000o\000n\000s}{}% 5
\BOOKMARK [1][-]{section.4}{\376\377\000F\000e\000a\000t\000u\000r\000e\000s}{part.2}% 6
\BOOKMARK [1][-]{section.5}{\376\377\000I\000n\000c\000l\000u\000d\000e\000d\000\040\000P\000a\000c\000k\000a\000g\000e\000s}{part.2}% 7
\BOOKMARK [1][-]{section.6}{\376\377\000M\000a\000r\000g\000i\000n\000s}{part.2}% 8
\BOOKMARK [2][-]{subsection.6.1}{\376\377\000W\000h\000y\000\040\000u\000s\000e\000\040\000b\000o\000t\000h\000\040\000m\000a\000r\000g\000i\000n\000n\000o\000t\000e\000s\000\040\000a\000n\000d\000\040\000s\000i\000d\000e\000n\000o\000t\000e\000s\000?}{section.6}% 9
\BOOKMARK [1][-]{section.7}{\376\377\000T\000e\000X\000\040\000S\000h\000o\000r\000t\000c\000u\000t\000s}{part.2}% 10
\BOOKMARK [2][-]{subsection.7.1}{\376\377\000A\000v\000a\000i\000l\000a\000b\000l\000e\000\040\000S\000h\000o\000r\000t\000c\000u\000t\000s}{section.7}% 11
\BOOKMARK [1][-]{section.8}{\376\377\000a\000m\000s\000t\000h\000m\000\040\000E\000n\000v\000i\000r\000o\000n\000m\000e\000n\000t\000s}{part.2}% 12
\BOOKMARK [2][-]{subsection.8.1}{\376\377\000t\000c\000o\000l\000o\000r\000b\000o\000x\000\040\000E\000n\000v\000i\000r\000o\000n\000m\000e\000n\000t\000\040\000a\000n\000d\000\040\000K\000n\000o\000w\000n\000\040\000I\000s\000s\000u\000e\000s}{section.8}% 13
\BOOKMARK [1][-]{section.9}{\376\377\000T\000h\000e\000\040\000P\000a\000r\000t\000\040\000E\000n\000v\000i\000r\000o\000n\000m\000e\000n\000t}{part.2}% 14
\BOOKMARK [1][-]{section.10}{\376\377\000F\000u\000l\000l\000p\000a\000g\000e\000\040\000E\000n\000v\000i\000r\000o\000n\000m\000e\000n\000t}{part.2}% 15
\BOOKMARK [2][-]{subsection.10.1}{\376\377\000K\000n\000o\000w\000n\000\040\000I\000s\000s\000u\000e\000s\000\040\000w\000i\000t\000h\000\040\000F\000u\000l\000l\000p\000a\000g\000e}{section.10}% 16
\BOOKMARK [0][-]{part.3}{\376\377\000I\000I\000I\000\040\000A\000d\000v\000a\000n\000c\000e\000d\000\040\000P\000a\000g\000e\000\040\000F\000o\000r\000m\000a\000t\000t\000i\000n\000g}{}% 17
\BOOKMARK [1][-]{section.11}{\376\377\000P\000a\000g\000e\000\040\000D\000i\000m\000e\000n\000s\000i\000o\000n\000s}{part.3}% 18
\BOOKMARK [1][-]{section.12}{\376\377\000F\000a\000n\000c\000y\000h\000d\000r\000\040\000L\000a\000y\000o\000u\000t}{part.3}% 19
\BOOKMARK [1][-]{section.13}{\376\377\000A\000l\000t\000e\000r\000n\000a\000t\000i\000v\000e\000\040\000L\000a\000n\000g\000u\000a\000g\000e\000\040\000I\000n\000t\000e\000g\000r\000a\000t\000i\000o\000n\000:\000\040\000P\000e\000r\000s\000i\000a\000n}{part.3}% 20
